{
    "0": [
        [
            89,
            2
        ],
        [
            100,
            2
        ],
        [
            100,
            16
        ],
        [
            89,
            16
        ]
    ],
    "1": [
        [
            32,
            140
        ],
        [
            59,
            140
        ],
        [
            59,
            171
        ],
        [
            32,
            171
        ]
    ],
    "2": [
        [
            91,
            126
        ],
        [
            104,
            126
        ],
        [
            104,
            164
        ],
        [
            91,
            164
        ]
    ],
    "3": [
        [
            139,
            92
        ],
        [
            170,
            92
        ],
        [
            170,
            108
        ],
        [
            139,
            108
        ]
    ],
    "4": [
        [
            159,
            168
        ],
        [
            185,
            168
        ],
        [
            185,
            182
        ],
        [
            159,
            182
        ]
    ],
    "5": [
        [
            154,
            9
        ],
        [
            191,
            9
        ],
        [
            191,
            26
        ],
        [
            154,
            26
        ]
    ],
    "6": [
        [
            120,
            136
        ],
        [
            142,
            136
        ],
        [
            142,
            174
        ],
        [
            120,
            174
        ]
    ],
    "7": [
        [
            71,
            79
        ],
        [
            103,
            79
        ],
        [
            103,
            111
        ],
        [
            71,
            111
        ]
    ],
    "8": [
        [
            34,
            14
        ],
        [
            46,
            14
        ],
        [
            46,
            40
        ],
        [
            34,
            40
        ]
    ],
    "9": [
        [
            67,
            38
        ],
        [
            87,
            38
        ],
        [
            87,
            68
        ],
        [
            67,
            68
        ]
    ]
}